{
    "claim_number": "0012c034",
    "make": "NISSAN",
    "model": "VERSA",
    "mileage": "12054",
    "year": "2020",
    "state": "CA",
    "country": "US",
    "vin": "JTDBT123530280421",
    "loss_year": "2021",
    "force": true,
    "report_date": "2022-01-01",
    "images": [
        {
            "uid": "1",
            "url": "original-1648112064157-0012c034_b9cdaa33-e2da-4d8e.jpg"
        }
    ]
}