{
    "claim_number": "415de864",
    "make": "NISSAN",
    "model": "VERSA",
    "mileage": "12054",
    "year": "2020",
    "state": "CA",
    "country": "US",
    "vin": "JTDBT123530280421",
    "loss_year": "2021",
    "force": true,
    "report_date": "2022-01-01",
    "images": [
        {
            "uid": "1",
            "url": "1643798738217-415de86416ab9697-3c65-4095.jpg"
        },
        {
            "uid": "2",
            "url": "1643798733404-3e84f0065beb4bfa-98aa-41a6.jpg"
        }
    ]
}