{
    "claim_number": "4f7dbc8e",
    "make": "NISSAN",
    "model": "VERSA",
    "mileage": "12054",
    "year": "2020",
    "state": "CA",
    "country": "US",
    "vin": "JTDBT123530280421",
    "loss_year": "2021",
    "force": true,
    "report_date": "2022-01-01",
    "images": [
        {
            "uid": "1",
            "url": "original-1648038324115-4f7dbc8e_7a30cbad-5f83-4add.jpg"
        },
        {
            "uid": "2",
            "url": "original-1648038320382-4d58d2e0_221b2b65-12f8-4722.jpg"
        }
    ]
}