{
    "claim_number": "6446939c",
    "make": "NISSAN",
    "model": "VERSA",
    "mileage": "12054",
    "year": "2020",
    "state": "CA",
    "country": "US",
    "vin": "JTDBT123530280421",
    "loss_year": "2021",
    "force": true,
    "report_date": "2022-01-01",
    "images": [
        {
            "uid": "1",
            "url": "1643795354660-6040df0a69243bc5-d294-4782.jpg"
        },
        {
            "uid": "2",
            "url": "1643795349258-5d693f8e7ab2cd1f-6789-47b4.jpg"
        }
    ]
}