{
    "claim_number": "75cfd6df",
    "make": "NISSAN",
    "model": "VERSA",
    "mileage": "12054",
    "year": "2020",
    "state": "CA",
    "country": "US",
    "vin": "JTDBT123530280421",
    "loss_year": "2021",
    "force": true,
    "report_date": "2022-01-01",
    "images": [
        {
            "uid": "1",
            "url": "original-1648029370055-75cfd6df_762f2d02-eb11-43ba.jpg"
        },
        {
            "uid": "2",
            "url": "original-1648029365259-739a60d2_1a406f02-7b02-4366.jpg"
        }
    ]
}