{
    "claim_number": "798f18f6",
    "make": "NISSAN",
    "model": "VERSA",
    "mileage": "12054",
    "year": "2020",
    "state": "CA",
    "country": "US",
    "vin": "JTDBT123530280421",
    "loss_year": "2021",
    "force": true,
    "report_date": "2022-01-01",
    "images": [
        {
            "uid": "1",
            "url": "original-1648188719816-798f18f6_23390053-adeb-40aa.jpg"
        },
        {
            "uid": "2",
            "url": "original-1648188715770-773bf8bc_c488d82f-0adc-4058.jpg"
        },
        {
            "uid": "3",
            "url": "original-1648188711988-74f8003c_ba14971f-3f1d-41b3.jpg"
        },
        {
            "uid": "4",
            "url": "original-1648188708521-72e73876_1dfcfd7c-5b27-4e98.jpg"
        },
        {
            "uid": "5",
            "url": "original-1648188704777-70af3784_6b7489ec-7be0-4aed.jpg"
        },
        {
            "uid": "6",
            "url": "original-1648188700592-6e2364a4_573983b4-7e92-4a85.jpg"
        },
        {
            "uid": "7",
            "url": "original-1648188696690-6bd06fc6_85bff486-834e-4e09.jpg"
        },
        {
            "uid": "8",
            "url": "original-1648188692818-697dc61a_a85b6421-eeaf-42c9.jpg"
        }
    ]
}