{
    "claim_number": "b5cccd21",
    "make": "NISSAN",
    "model": "VERSA",
    "mileage": "12054",
    "year": "2020",
    "state": "CA",
    "country": "US",
    "vin": "JTDBT123530280421",
    "loss_year": "2021",
    "force": true,
    "report_date": "2022-01-01",
    "images": [
        {
            "uid": "1",
            "url": "original-1648030766302-b5cccd21_2ed5c947-1743-4623.jpg"
        },
        {
            "uid": "2",
            "url": "original-1648030760929-b377f342_c7958aef-7a2e-430c.jpg"
        }
    ]
}