{
    "claim_number": "de6e5214",
    "make": "NISSAN",
    "model": "VERSA",
    "mileage": "12054",
    "year": "2020",
    "state": "CA",
    "country": "US",
    "vin": "JTDBT123530280421",
    "loss_year": "2021",
    "force": true,
    "report_date": "2022-01-01",
    "images": [
        {
            "uid": "1",
            "url": "original-1648188887618-de6e5214_c06676c0-d035-4181.jpg"
        },
        {
            "uid": "2",
            "url": "original-1648188883751-dc33e0b8_c9b8f1d0-8016-4664.jpg"
        }
    ]
}